INDEX VERSION 1.131+E:\FACULTATE\AN 2\Sem2\SE\Lab 12\.metadata\.plugins\org.eclipse.jdt.core
1865797976.index
492640458.index
3337952955.index
2478141492.index
1251748883.index
2065480179.index
2467452106.index
1451691268.index
2661086934.index
516653589.index
3422282995.index
1168778283.index
2220285587.index
3875122248.index
455644756.index
1965750664.index
4155490056.index
4016002354.index
1216370319.index
2725428427.index
1026586372.index
104880827.index
4036489083.index
3127835942.index
697369757.index
